…
Generate 5000 datasets from the model:

``` r
expand_grid(
  means = 0,
  iteration = 1:5000
) %>%
  mutate(
    estimate_df = map(means, simulations)
  ) %>%
  unnest(estimate_df)
```

    ## # A tibble: 5,000 × 4
    ##    means iteration estimate p.value
    ##    <dbl>     <int>    <dbl>   <dbl>
    ##  1     0         1    1.27   0.151 
    ##  2     0         2    0.124  0.915 
    ##  3     0         3   -0.852  0.313 
    ##  4     0         4    1.63   0.0619
    ##  5     0         5    0.468  0.619 
    ##  6     0         6    2.03   0.0399
    ##  7     0         7   -0.855  0.475 
    ##  8     0         8   -0.649  0.492 
    ##  9     0         9   -0.131  0.872 
    ## 10     0        10    0.104  0.925 
    ## # … with 4,990 more rows
…
